Impact of weather events on the population health and property/crop damage
…
Figure: Time series plot of total fatalities/injuries (left) and property/crop damage (right) from 2001 to 2011.

So we can see that the number of injuries and fatalities is increasing over the years. In particularly in 2011 there was substantially more injuries and deaths compared to previous years. The observed increase could be caused by global warming. On the right side plot we see that property damage was substantially larger in 2006 compared to other years.

group_by(filter(flooddata, date==2006, damagetype=="propdamage"), statefips) %>% summarise(sum(value)) %>% arrange(desc(`sum(value)`))

## # A tibble: 53 x 2
##    statefips `sum(value)`
##        <dbl>        <dbl>
##  1         6 230606182000
##  2        36   1977120000
##  3        22   1299654000
##  4        39   1099517600
##  5        42   1063060000
##  6        48    438524000
##  7        51    144645000
##  8         2    122444680
##  9        41     98000000
## 10        34     67000000
## #  with 43 more rows
…
